{
    "count": 606,
    "next": "https://netbox-demo.sdpcloud.intel.com/api/dcim/interfaces/?limit=10&name=net0%2F0&offset=10&site=phx02",
    "previous": null,
    "results": [
        {
            "id": 44417,
            "url": "https://netbox-demo.sdpcloud.intel.com/api/dcim/interfaces/44417/",
            "display": "net0/0",
            "device": {
              "id": 10329,
              "url": "https://netbox-demo.sdpcloud.intel.com/api/dcim/devices/10329/",
              "display": "phx02-c01-hvst001 (S497867X3511461)",
              "name": "phx02-c01-hvst001",
              "description": ""
            },
            "vdcs": [],
            "module": null,
            "name": "net0/0",
            "label": "",
            "type": {
              "value": "100gbase-x-qsfp28",
              "label": "QSFP28 (100GE)"
            },
            "enabled": true,
            "parent": null,
            "bridge": null,
            "lag": null,
            "mtu": null,
            "mac_address": "3C:EC:EF:5C:A6:D2",
            "speed": null,
            "duplex": null,
            "wwn": null,
            "mgmt_only": false,
            "description": "",
            "mode": null,
            "rf_role": null,
            "rf_channel": null,
            "poe_mode": null,
            "poe_type": null,
            "rf_channel_frequency": null,
            "rf_channel_width": null,
            "tx_power": null,
            "untagged_vlan": null,
            "tagged_vlans": [],
            "mark_connected": false,
            "cable": {
              "id": 60953,
              "url": "https://netbox-demo.sdpcloud.intel.com/api/dcim/cables/60953/",
              "display": "#60953",
              "label": "",
              "description": ""
            },
            "cable_end": "A",
            "wireless_link": null,
            "link_peers": [
              {
                "id": 210093,
                "url": "https://netbox-demo.sdpcloud.intel.com/api/dcim/interfaces/210093/",
                "display": "Ethernet4/1",
                "device": {
                  "id": 20993,
                  "url": "https://netbox-demo.sdpcloud.intel.com/api/dcim/devices/20993/",
                  "display": "phx02-c01-acsw009 (JPA2338P1J1)",
                  "name": "phx02-c01-acsw009",
                  "description": ""
                },
                "name": "Ethernet4/1",
                "description": "",
                "cable": {
                  "id": 60953,
                  "url": "https://netbox-demo.sdpcloud.intel.com/api/dcim/cables/60953/",
                  "display": "#60953",
                  "label": "",
                  "description": ""
                },
                "_occupied": true
              }
            ],
            "link_peers_type": "dcim.interface",
            "wireless_lans": [],
            "vrf": null,
            "l2vpn_termination": null,
            "connected_endpoints": [
              {
                "id": 210093,
                "url": "https://netbox-demo.sdpcloud.intel.com/api/dcim/interfaces/210093/",
                "display": "Ethernet4/1",
                "device": {
                  "id": 20993,
                  "url": "https://netbox-demo.sdpcloud.intel.com/api/dcim/devices/20993/",
                  "display": "phx02-c01-acsw009 (JPA2338P1J1)",
                  "name": "phx02-c01-acsw009",
                  "description": ""
                },
                "name": "Ethernet4/1",
                "description": "",
                "cable": {
                  "id": 60953,
                  "url": "https://netbox-demo.sdpcloud.intel.com/api/dcim/cables/60953/",
                  "display": "#60953",
                  "label": "",
                  "description": ""
                },
                "_occupied": true
              }
            ],
            "connected_endpoints_type": "dcim.interface",
            "connected_endpoints_reachable": true,
            "tags": [],
            "custom_fields": {},
            "created": "2023-06-27T14:00:12.668800Z",
            "last_updated": "2024-07-10T04:08:41.794822Z",
            "count_ipaddresses": 0,
            "count_fhrp_groups": 0,
            "_occupied": true
          },
          {
            "id": 44418,
            "url": "https://netbox-demo.sdpcloud.intel.com/api/dcim/interfaces/44418/",
            "display": "net0/1",
            "device": {
              "id": 10329,
              "url": "https://netbox-demo.sdpcloud.intel.com/api/dcim/devices/10329/",
              "display": "phx02-c01-hvst001 (S497867X3511461)",
              "name": "phx02-c01-hvst001",
              "description": ""
            },
            "vdcs": [],
            "module": null,
            "name": "net0/1",
            "label": "",
            "type": {
              "value": "100gbase-x-qsfp28",
              "label": "QSFP28 (100GE)"
            },
            "enabled": true,
            "parent": null,
            "bridge": null,
            "lag": null,
            "mtu": null,
            "mac_address": null,
            "speed": null,
            "duplex": null,
            "wwn": null,
            "mgmt_only": false,
            "description": "",
            "mode": null,
            "rf_role": null,
            "rf_channel": null,
            "poe_mode": null,
            "poe_type": null,
            "rf_channel_frequency": null,
            "rf_channel_width": null,
            "tx_power": null,
            "untagged_vlan": null,
            "tagged_vlans": [],
            "mark_connected": false,
            "cable": null,
            "cable_end": "",
            "wireless_link": null,
            "link_peers": [],
            "link_peers_type": null,
            "wireless_lans": [],
            "vrf": null,
            "l2vpn_termination": null,
            "connected_endpoints": null,
            "connected_endpoints_type": null,
            "connected_endpoints_reachable": null,
            "tags": [],
            "custom_fields": {},
            "created": "2023-06-27T14:00:12.668932Z",
            "last_updated": "2023-06-27T14:00:12.668940Z",
            "count_ipaddresses": 0,
            "count_fhrp_groups": 0,
            "_occupied": false
          },
          {
            "id": 208944,
            "url": "https://netbox-demo.sdpcloud.intel.com/api/dcim/interfaces/208944/",
            "display": "net0/0",
            "device": {
              "id": 20950,
              "url": "https://netbox-demo.sdpcloud.intel.com/api/dcim/devices/20950/",
              "display": "phx02-c01-ikvm001 (S497867X3511430)",
              "name": "phx02-c01-ikvm001",
              "description": ""
            },
            "vdcs": [],
            "module": null,
            "name": "net0/0",
            "label": "",
            "type": {
              "value": "100gbase-x-qsfp28",
              "label": "QSFP28 (100GE)"
            },
            "enabled": true,
            "parent": null,
            "bridge": null,
            "lag": null,
            "mtu": null,
            "mac_address": "3C:EC:EF:5C:A4:36",
            "speed": null,
            "duplex": null,
            "wwn": null,
            "mgmt_only": false,
            "description": "",
            "mode": null,
            "rf_role": null,
            "rf_channel": null,
            "poe_mode": null,
            "poe_type": null,
            "rf_channel_frequency": null,
            "rf_channel_width": null,
            "tx_power": null,
            "untagged_vlan": null,
            "tagged_vlans": [],
            "mark_connected": false,
            "cable": {
              "id": 59437,
              "url": "https://netbox-demo.sdpcloud.intel.com/api/dcim/cables/59437/",
              "display": "#59437",
              "label": "",
              "description": ""
            },
            "cable_end": "A",
            "wireless_link": null,
            "link_peers": [
              {
                "id": 210090,
                "url": "https://netbox-demo.sdpcloud.intel.com/api/dcim/interfaces/210090/",
                "display": "Ethernet1/1",
                "device": {
                  "id": 20993,
                  "url": "https://netbox-demo.sdpcloud.intel.com/api/dcim/devices/20993/",
                  "display": "phx02-c01-acsw009 (JPA2338P1J1)",
                  "name": "phx02-c01-acsw009",
                  "description": ""
                },
                "name": "Ethernet1/1",
                "description": "",
                "cable": {
                  "id": 59437,
                  "url": "https://netbox-demo.sdpcloud.intel.com/api/dcim/cables/59437/",
                  "display": "#59437",
                  "label": "",
                  "description": ""
                },
                "_occupied": true
              }
            ],
            "link_peers_type": "dcim.interface",
            "wireless_lans": [],
            "vrf": null,
            "l2vpn_termination": null,
            "connected_endpoints": [
              {
                "id": 210090,
                "url": "https://netbox-demo.sdpcloud.intel.com/api/dcim/interfaces/210090/",
                "display": "Ethernet1/1",
                "device": {
                  "id": 20993,
                  "url": "https://netbox-demo.sdpcloud.intel.com/api/dcim/devices/20993/",
                  "display": "phx02-c01-acsw009 (JPA2338P1J1)",
                  "name": "phx02-c01-acsw009",
                  "description": ""
                },
                "name": "Ethernet1/1",
                "description": "",
                "cable": {
                  "id": 59437,
                  "url": "https://netbox-demo.sdpcloud.intel.com/api/dcim/cables/59437/",
                  "display": "#59437",
                  "label": "",
                  "description": ""
                },
                "_occupied": true
              }
            ],
            "connected_endpoints_type": "dcim.interface",
            "connected_endpoints_reachable": false,
            "tags": [],
            "custom_fields": {},
            "created": "2024-05-20T19:25:23.608494Z",
            "last_updated": "2024-07-10T03:49:56.742785Z",
            "count_ipaddresses": 0,
            "count_fhrp_groups": 0,
            "_occupied": true
          },
          {
            "id": 208945,
            "url": "https://netbox-demo.sdpcloud.intel.com/api/dcim/interfaces/208945/",
            "display": "net0/1",
            "device": {
              "id": 20950,
              "url": "https://netbox-demo.sdpcloud.intel.com/api/dcim/devices/20950/",
              "display": "phx02-c01-ikvm001 (S497867X3511430)",
              "name": "phx02-c01-ikvm001",
              "description": ""
            },
            "vdcs": [],
            "module": null,
            "name": "net0/1",
            "label": "",
            "type": {
              "value": "100gbase-x-qsfp28",
              "label": "QSFP28 (100GE)"
            },
            "enabled": true,
            "parent": null,
            "bridge": null,
            "lag": null,
            "mtu": null,
            "mac_address": null,
            "speed": null,
            "duplex": null,
            "wwn": null,
            "mgmt_only": false,
            "description": "",
            "mode": null,
            "rf_role": null,
            "rf_channel": null,
            "poe_mode": null,
            "poe_type": null,
            "rf_channel_frequency": null,
            "rf_channel_width": null,
            "tx_power": null,
            "untagged_vlan": null,
            "tagged_vlans": [],
            "mark_connected": false,
            "cable": null,
            "cable_end": "",
            "wireless_link": null,
            "link_peers": [],
            "link_peers_type": null,
            "wireless_lans": [],
            "vrf": null,
            "l2vpn_termination": null,
            "connected_endpoints": null,
            "connected_endpoints_type": null,
            "connected_endpoints_reachable": null,
            "tags": [],
            "custom_fields": {},
            "created": "2024-05-20T19:25:23.610050Z",
            "last_updated": "2024-05-20T19:25:23.610079Z",
            "count_ipaddresses": 0,
            "count_fhrp_groups": 0,
            "_occupied": false
          },
          {
            "id": 208979,
            "url": "https://netbox-demo.sdpcloud.intel.com/api/dcim/interfaces/208979/",
            "display": "net0/0",
            "device": {
              "id": 20957,
              "url": "https://netbox-demo.sdpcloud.intel.com/api/dcim/devices/20957/",
              "display": "phx02-c01-akvm003 (S497867X3517054)",
              "name": "phx02-c01-akvm003",
              "description": ""
            },
            "vdcs": [],
            "module": null,
            "name": "net0/0",
            "label": "",
            "type": {
              "value": "100gbase-x-qsfp28",
              "label": "QSFP28 (100GE)"
            },
            "enabled": true,
            "parent": null,
            "bridge": null,
            "lag": null,
            "mtu": null,
            "mac_address": "7C:C2:55:42:5F:BC",
            "speed": null,
            "duplex": null,
            "wwn": null,
            "mgmt_only": false,
            "description": "",
            "mode": null,
            "rf_role": null,
            "rf_channel": null,
            "poe_mode": null,
            "poe_type": null,
            "rf_channel_frequency": null,
            "rf_channel_width": null,
            "tx_power": null,
            "untagged_vlan": null,
            "tagged_vlans": [],
            "mark_connected": false,
            "cable": {
              "id": 59451,
              "url": "https://netbox-demo.sdpcloud.intel.com/api/dcim/cables/59451/",
              "display": "#59451",
              "label": "",
              "description": ""
            },
            "cable_end": "A",
            "wireless_link": null,
            "link_peers": [
              {
                "id": 210235,
                "url": "https://netbox-demo.sdpcloud.intel.com/api/dcim/interfaces/210235/",
                "display": "Ethernet2/1",
                "device": {
                  "id": 20997,
                  "url": "https://netbox-demo.sdpcloud.intel.com/api/dcim/devices/20997/",
                  "display": "phx02-c01-acsw011 (JPA2343P3HX)",
                  "name": "phx02-c01-acsw011",
                  "description": ""
                },
                "name": "Ethernet2/1",
                "description": "",
                "cable": {
                  "id": 59451,
                  "url": "https://netbox-demo.sdpcloud.intel.com/api/dcim/cables/59451/",
                  "display": "#59451",
                  "label": "",
                  "description": ""
                },
                "_occupied": true
              }
            ],
            "link_peers_type": "dcim.interface",
            "wireless_lans": [],
            "vrf": null,
            "l2vpn_termination": null,
            "connected_endpoints": [
              {
                "id": 210235,
                "url": "https://netbox-demo.sdpcloud.intel.com/api/dcim/interfaces/210235/",
                "display": "Ethernet2/1",
                "device": {
                  "id": 20997,
                  "url": "https://netbox-demo.sdpcloud.intel.com/api/dcim/devices/20997/",
                  "display": "phx02-c01-acsw011 (JPA2343P3HX)",
                  "name": "phx02-c01-acsw011",
                  "description": ""
                },
                "name": "Ethernet2/1",
                "description": "",
                "cable": {
                  "id": 59451,
                  "url": "https://netbox-demo.sdpcloud.intel.com/api/dcim/cables/59451/",
                  "display": "#59451",
                  "label": "",
                  "description": ""
                },
                "_occupied": true
              }
            ],
            "connected_endpoints_type": "dcim.interface",
            "connected_endpoints_reachable": true,
            "tags": [],
            "custom_fields": {},
            "created": "2024-05-20T19:25:29.674818Z",
            "last_updated": "2024-07-10T03:59:39.116240Z",
            "count_ipaddresses": 0,
            "count_fhrp_groups": 0,
            "_occupied": true
          },
          {
            "id": 208980,
            "url": "https://netbox-demo.sdpcloud.intel.com/api/dcim/interfaces/208980/",
            "display": "net0/1",
            "device": {
              "id": 20957,
              "url": "https://netbox-demo.sdpcloud.intel.com/api/dcim/devices/20957/",
              "display": "phx02-c01-akvm003 (S497867X3517054)",
              "name": "phx02-c01-akvm003",
              "description": ""
            },
            "vdcs": [],
            "module": null,
            "name": "net0/1",
            "label": "",
            "type": {
              "value": "100gbase-x-qsfp28",
              "label": "QSFP28 (100GE)"
            },
            "enabled": true,
            "parent": null,
            "bridge": null,
            "lag": null,
            "mtu": null,
            "mac_address": null,
            "speed": null,
            "duplex": null,
            "wwn": null,
            "mgmt_only": false,
            "description": "",
            "mode": null,
            "rf_role": null,
            "rf_channel": null,
            "poe_mode": null,
            "poe_type": null,
            "rf_channel_frequency": null,
            "rf_channel_width": null,
            "tx_power": null,
            "untagged_vlan": null,
            "tagged_vlans": [],
            "mark_connected": false,
            "cable": null,
            "cable_end": "",
            "wireless_link": null,
            "link_peers": [],
            "link_peers_type": null,
            "wireless_lans": [],
            "vrf": null,
            "l2vpn_termination": null,
            "connected_endpoints": null,
            "connected_endpoints_type": null,
            "connected_endpoints_reachable": null,
            "tags": [],
            "custom_fields": {},
            "created": "2024-05-20T19:25:29.674990Z",
            "last_updated": "2024-05-20T19:25:29.675002Z",
            "count_ipaddresses": 0,
            "count_fhrp_groups": 0,
            "_occupied": false
          }
    ]
  }
  